
{
  "header": {
    "event": "Allocation failed - JavaScript heap out of memory",
    "trigger": "FatalError",
    "filename": "report.20190620.132502.19654.0.001.json",
    "dumpEventTime": "2019-06-20T13:25:02Z",
    "dumpEventTimeStamp": "1561026302356",
    "processId": 19654,
    "commandLine": [
      "node",
      "/home/chester/project/admin/node_modules/.bin/ng",
      "build",
      "--aot",
      "--build-optimizer"
    ],
    "nodejsVersion": "v11.13.0",
    "glibcVersionRuntime": "2.28",
    "glibcVersionCompiler": "2.12",
    "wordSize": 64,
    "arch": "x64",
    "platform": "linux",
    "componentVersions": {
      "node": "11.13.0",
      "v8": "7.0.276.38-node.18",
      "uv": "1.27.0",
      "zlib": "1.2.11",
      "brotli": "1.0.7",
      "ares": "1.15.0",
      "modules": "67",
      "nghttp2": "1.34.0",
      "napi": "4",
      "llhttp": "1.1.1",
      "http_parser": "2.8.0",
      "openssl": "1.1.1b",
      "cldr": "34.0",
      "icu": "63.1",
      "tz": "2018e",
      "unicode": "11.0"
    },
    "release": {
      "name": "node",
      "headersUrl": "https://nodejs.org/download/release/v11.13.0/node-v11.13.0-headers.tar.gz",
      "sourceUrl": "https://nodejs.org/download/release/v11.13.0/node-v11.13.0.tar.gz"
    },
    "osName": "Linux",
    "osRelease": "4.19.0-4-amd64",
    "osVersion": "#1 SMP Debian 4.19.28-2 (2019-03-15)",
    "osMachine": "x86_64",
    "host": "daisuke"
  },
  "javascriptStack": {
    "message": "No stack.",
    "stack": [
      "Unavailable."
    ]
  },
  "nativeStack": [
    {
      "pc": "0x0000000000a6dd6d",
      "symbol": "report::TriggerNodeReport(v8::Isolate*, node::Environment*, char const*, char const*, std::string const&, v8::Local<v8::String>) [ng build --aot --build-optimizer]"
    },
    {
      "pc": "0x000000000095b483",
      "symbol": "node::OnFatalError(char const*, char const*) [ng build --aot --build-optimizer]"
    },
    {
      "pc": "0x0000000000b3b32e",
      "symbol": "v8::Utils::ReportOOMFailure(v8::internal::Isolate*, char const*, bool) [ng build --aot --build-optimizer]"
    },
    {
      "pc": "0x0000000000b3b564",
      "symbol": "v8::internal::V8::FatalProcessOutOfMemory(v8::internal::Isolate*, char const*, bool) [ng build --aot --build-optimizer]"
    },
    {
      "pc": "0x0000000000f3abb2",
      "symbol": " [ng build --aot --build-optimizer]"
    },
    {
      "pc": "0x0000000000f3acb8",
      "symbol": "v8::internal::Heap::CheckIneffectiveMarkCompact(unsigned long, double) [ng build --aot --build-optimizer]"
    },
    {
      "pc": "0x0000000000f473d8",
      "symbol": "v8::internal::Heap::PerformGarbageCollection(v8::internal::GarbageCollector, v8::GCCallbackFlags) [ng build --aot --build-optimizer]"
    },
    {
      "pc": "0x0000000000f47eeb",
      "symbol": "v8::internal::Heap::CollectGarbage(v8::internal::AllocationSpace, v8::internal::GarbageCollectionReason, v8::GCCallbackFlags) [ng build --aot --build-optimizer]"
    },
    {
      "pc": "0x0000000000f4ac21",
      "symbol": "v8::internal::Heap::AllocateRawWithRetryOrFail(int, v8::internal::AllocationSpace, v8::internal::AllocationAlignment) [ng build --aot --build-optimizer]"
    },
    {
      "pc": "0x0000000000f14e54",
      "symbol": "v8::internal::Factory::NewFillerObject(int, bool, v8::internal::AllocationSpace) [ng build --aot --build-optimizer]"
    },
    {
      "pc": "0x00000000011cb15e",
      "symbol": "v8::internal::Runtime_AllocateInNewSpace(int, v8::internal::Object**, v8::internal::Isolate*) [ng build --aot --build-optimizer]"
    },
    {
      "pc": "0x00003855c77cfc5d",
      "symbol": ""
    }
  ],
  "javascriptHeap": {
    "totalMemory": 1494986752,
    "totalCommittedMemory": 1490590792,
    "usedMemory": 1424057840,
    "availableMemory": 34769384,
    "memoryLimit": 1526909922,
    "heapSpaces": {
      "read_only_space": {
        "memorySize": 524288,
        "committedMemory": 42224,
        "capacity": 515584,
        "used": 33520,
        "available": 482064
      },
      "new_space": {
        "memorySize": 4194304,
        "committedMemory": 1167496,
        "capacity": 2062336,
        "used": 66712,
        "available": 1995624
      },
      "old_space": {
        "memorySize": 1410011136,
        "committedMemory": 1409565840,
        "capacity": 1353571840,
        "used": 1353011344,
        "available": 560496
      },
      "code_space": {
        "memorySize": 8912896,
        "committedMemory": 8473472,
        "capacity": 7932288,
        "used": 7932288,
        "available": 0
      },
      "map_space": {
        "memorySize": 18886656,
        "committedMemory": 18884288,
        "capacity": 12138320,
        "used": 12138320,
        "available": 0
      },
      "large_object_space": {
        "memorySize": 52457472,
        "committedMemory": 52457472,
        "capacity": 82606856,
        "used": 50875656,
        "available": 31731200
      },
      "new_large_object_space": {
        "memorySize": 0,
        "committedMemory": 0,
        "capacity": 0,
        "used": 0,
        "available": 0
      }
    }
  },
  "resourceUsage": {
    "userCpuSeconds": 102.335,
    "kernelCpuSeconds": 1.86415,
    "cpuConsumptionPercent": 173.666,
    "maxRss": 1626976256,
    "pageFaults": {
      "IORequired": 2,
      "IONotRequired": 725834
    },
    "fsActivity": {
      "reads": 192,
      "writes": 0
    }
  },
  "uvthreadResourceUsage": {
    "userCpuSeconds": 57.928,
    "kernelCpuSeconds": 0.981491,
    "cpuConsumptionPercent": 98.1826,
    "fsActivity": {
      "reads": 192,
      "writes": 0
    }
  },
  "libuv": [
  ],
  "environmentVariables": {
    "SHELL": "/bin/bash",
    "SESSION_MANAGER": "local/daisuke:@/tmp/.ICE-unix/1294,unix/daisuke:/tmp/.ICE-unix/1294",
    "QT_ACCESSIBILITY": "1",
    "XDG_MENU_PREFIX": "gnome-",
    "GNOME_DESKTOP_SESSION_ID": "this-is-deprecated",
    "GTK_IM_MODULE": "ibus",
    "TERMINAL_EMULATOR": "JetBrains-JediTerm",
    "QT4_IM_MODULE": "ibus",
    "SSH_AUTH_SOCK": "/run/user/1000/keyring/ssh",
    "__INTELLIJ_COMMAND_HISTFILE__": "/home/chester/.WebStorm2019.1/config/terminal/history/history-",
    "XMODIFIERS": "@im=ibus",
    "DESKTOP_SESSION": "gnome",
    "SSH_AGENT_PID": "1359",
    "GTK_MODULES": "gail:atk-bridge",
    "XDG_SEAT": "seat0",
    "PWD": "/usr/local/share/project/admin",
    "LOGNAME": "chester",
    "XDG_SESSION_DESKTOP": "gnome",
    "XDG_SESSION_TYPE": "x11",
    "GPG_AGENT_INFO": "/run/user/1000/gnupg/S.gpg-agent:0:1",
    "XAUTHORITY": "/run/user/1000/gdm/Xauthority",
    "GJS_DEBUG_TOPICS": "JS ERROR;JS LOG",
    "WINDOWPATH": "2",
    "GDM_LANG": "ru_RU.UTF-8",
    "HOME": "/home/chester",
    "USERNAME": "chester",
    "LANG": "ru_RU.UTF-8",
    "HISTFILE": "/home/chester/.WebStorm2019.1/config/terminal/history/history-",
    "LS_COLORS": "rs=0:di=01;34:ln=01;36:mh=00:pi=40;33:so=01;35:do=01;35:bd=40;33;01:cd=40;33;01:or=40;31;01:mi=00:su=37;41:sg=30;43:ca=30;41:tw=30;42:ow=34;42:st=37;44:ex=01;32:*.tar=01;31:*.tgz=01;31:*.arc=01;31:*.arj=01;31:*.taz=01;31:*.lha=01;31:*.lz4=01;31:*.lzh=01;31:*.lzma=01;31:*.tlz=01;31:*.txz=01;31:*.tzo=01;31:*.t7z=01;31:*.zip=01;31:*.z=01;31:*.dz=01;31:*.gz=01;31:*.lrz=01;31:*.lz=01;31:*.lzo=01;31:*.xz=01;31:*.zst=01;31:*.tzst=01;31:*.bz2=01;31:*.bz=01;31:*.tbz=01;31:*.tbz2=01;31:*.tz=01;31:*.deb=01;31:*.rpm=01;31:*.jar=01;31:*.war=01;31:*.ear=01;31:*.sar=01;31:*.rar=01;31:*.alz=01;31:*.ace=01;31:*.zoo=01;31:*.cpio=01;31:*.7z=01;31:*.rz=01;31:*.cab=01;31:*.wim=01;31:*.swm=01;31:*.dwm=01;31:*.esd=01;31:*.jpg=01;35:*.jpeg=01;35:*.mjpg=01;35:*.mjpeg=01;35:*.gif=01;35:*.bmp=01;35:*.pbm=01;35:*.pgm=01;35:*.ppm=01;35:*.tga=01;35:*.xbm=01;35:*.xpm=01;35:*.tif=01;35:*.tiff=01;35:*.png=01;35:*.svg=01;35:*.svgz=01;35:*.mng=01;35:*.pcx=01;35:*.mov=01;35:*.mpg=01;35:*.mpeg=01;35:*.m2v=01;35:*.mkv=01;35:*.webm=01;35:*.ogm=01;35:*.mp4=01;35:*.m4v=01;35:*.mp4v=01;35:*.vob=01;35:*.qt=01;35:*.nuv=01;35:*.wmv=01;35:*.asf=01;35:*.rm=01;35:*.rmvb=01;35:*.flc=01;35:*.avi=01;35:*.fli=01;35:*.flv=01;35:*.gl=01;35:*.dl=01;35:*.xcf=01;35:*.xwd=01;35:*.yuv=01;35:*.cgm=01;35:*.emf=01;35:*.ogv=01;35:*.ogx=01;35:*.aac=00;36:*.au=00;36:*.flac=00;36:*.m4a=00;36:*.mid=00;36:*.midi=00;36:*.mka=00;36:*.mp3=00;36:*.mpc=00;36:*.ogg=00;36:*.ra=00;36:*.wav=00;36:*.oga=00;36:*.opus=00;36:*.spx=00;36:*.xspf=00;36:",
    "XDG_CURRENT_DESKTOP": "GNOME",
    "CLUTTER_IM_MODULE": "ibus",
    "GJS_DEBUG_OUTPUT": "stderr",
    "XDG_SESSION_CLASS": "user",
    "TERM": "xterm-256color",
    "USER": "chester",
    "DISPLAY": ":1",
    "SHLVL": "1",
    "QT_IM_MODULE": "ibus",
    "XDG_VTNR": "2",
    "XDG_SESSION_ID": "2",
    "XDG_RUNTIME_DIR": "/run/user/1000",
    "XDG_DATA_DIRS": "/usr/share/gnome:/usr/local/share/:/usr/share/",
    "PATH": "/home/chester/project/admin/node_modules/.bin:/usr/local/bin:/usr/bin:/bin:/usr/local/games:/usr/games:/usr/local/go/bin",
    "GDMSESSION": "gnome",
    "DBUS_SESSION_BUS_ADDRESS": "unix:path=/run/user/1000/bus",
    "GIO_LAUNCHED_DESKTOP_FILE_PID": "21317",
    "GIO_LAUNCHED_DESKTOP_FILE": "/usr/share/applications/jetbrains-webstorm.desktop",
    "OLDPWD": "/opt/WebStorm-191.6183.63/bin",
    "GOPATH": "/usr/local/share/project/go",
    "_": "/home/chester/project/admin/node_modules/.bin/ng"
  },
  "userLimits": {
    "core_file_size_blocks": {
      "soft": 0,
      "hard": "unlimited"
    },
    "data_seg_size_kbytes": {
      "soft": "unlimited",
      "hard": "unlimited"
    },
    "file_size_blocks": {
      "soft": "unlimited",
      "hard": "unlimited"
    },
    "max_locked_memory_bytes": {
      "soft": 67108864,
      "hard": 67108864
    },
    "max_memory_size_kbytes": {
      "soft": "unlimited",
      "hard": "unlimited"
    },
    "open_files": {
      "soft": 1048576,
      "hard": 1048576
    },
    "stack_size_bytes": {
      "soft": 8388608,
      "hard": "unlimited"
    },
    "cpu_time_seconds": {
      "soft": "unlimited",
      "hard": "unlimited"
    },
    "max_user_processes": {
      "soft": 62902,
      "hard": 62902
    },
    "virtual_memory_kbytes": {
      "soft": "unlimited",
      "hard": "unlimited"
    }
  },
  "sharedObjects": [
    "linux-vdso.so.1",
    "/lib/x86_64-linux-gnu/libdl.so.2",
    "/lib/x86_64-linux-gnu/librt.so.1",
    "/lib/x86_64-linux-gnu/libstdc++.so.6",
    "/lib/x86_64-linux-gnu/libm.so.6",
    "/lib/x86_64-linux-gnu/libgcc_s.so.1",
    "/lib/x86_64-linux-gnu/libpthread.so.0",
    "/lib/x86_64-linux-gnu/libc.so.6",
    "/lib64/ld-linux-x86-64.so.2",
    "/usr/local/share/project/admin/node_modules/node-sass/vendor/linux-x64-67/binding.node"
  ]
}